Modern Data Structure HW06
…
as.data.frame(table(gender))

##   gender Freq
## 1      F 3000
## 2      M 4343

by_gender_injury <- df %>%
  group_by(age,gender) %>%
  count()
by_gender_injury

## # A tibble: 219 x 3
## # Groups:   age, gender [219]
##    age   gender     n
##    <fct> <fct>  <int>
##  1 0     F          3
##  2 0.08  M         12
##  3 0.17  M          4
##  4 0.25  M          7
##  5 0.33  M         12
##  6 0.42  M         16
##  7 0.5   M          5
##  8 0.58  M         12
##  9 0.67  M         15
## 10 0.75  M         18
## #  with 209 more rows
…
